worksheet_02
…
happiness_report_path <- "data/happiness_report.csv"
happiness_report <- read_csv(file = happiness_report_path)
print(happiness_report, n = 10) # the n = 10 argument tells R to print 10 lines

Parsed with column specification:
cols(
  country = col_character(),
  happiness_score = col_double(),
  GDP_per_capita = col_double(),
  life_expectancy = col_double(),
  freedom = col_double()
)

# A tibble: 155 x 5
   country     happiness_score GDP_per_capita life_expectancy freedom
   <chr>                 <dbl>          <dbl>           <dbl>   <dbl>
 1 Norway                 7.54           1.62           0.797   0.635
 2 Denmark                7.52           1.48           0.793   0.626
 3 Iceland                7.50           1.48           0.834   0.627
 4 Switzerland            7.49           1.56           0.858   0.620
 5 Finland                7.47           1.44           0.809   0.618
 6 Netherlands            7.38           1.50           0.811   0.585
 7 Canada                 7.32           1.48           0.835   0.611
 8 New Zealand            7.31           1.41           0.817   0.614
 9 Sweden                 7.28           1.49           0.831   0.613
10 Australia              7.28           1.48           0.844   0.602
#  with 145 more rows
…
