worksheet_01
…
42  23.74768    1203    NA  male
23  24.20903    2040    NA  female
58  23.49177    1304    2819    male

By default, the first row of a data set is always the header that read_csv uses to label the column. Therefore, the first row contains descriptive names while the rows below contain the actual data.

This only shows us a small portion of the data set. You can look at more of the data set by using the print() function and specifying the number of rows you want to print.

In [43]:

print(marathon_small, n = 50)

# A tibble: 1,833 x 5
     age   bmi km5_time_seconds km10_time_seconds sex   
   <dbl> <dbl>            <dbl>             <dbl> <chr> 
 1    25  21.6               NA              2798 female
 2    41  23.9             1210                NA male  
 3    25  21.6              994                NA male  
 4    35  23.6             1075              2135 male  
 5    34  22.7             1186                NA male  
 6    45  42.1             3240                NA female
 7    33  22.5             1292                NA male  
 8    58  25.2               NA              3420 male  
 9    29  24.5             1440              3240 male  
10    36  25.4             2115              4210 female
11    54  26.4             1560              3360 male  
12    38  25.6               NA              2580 male  
13    39  25.0             1222                NA male  
14    29  26.0               NA              3720 male  
15    23  20.9             1690                NA female
16    38  24.6               NA              2730 male  
17    20  22.9              893                NA male  
18    33  28.0             1625              3978 male  
19    53  23.2             1050                NA male  
20    27  25.2             2412              4320 male  
21    32  29.2               NA              2588 male  
22    34  23.6             1603                NA female
23    44  20.0             1457                NA female
24    36  23.9             1160              2430 male  
25    53  21.5             1166                NA male  
26    33  28.9             1571              3256 male  
27    40  19.7             1753                NA female
28    34  26.0               NA              3395 male  
29    39  29.7             1256                NA male  
30    43  23.4             1255              2655 male  
31    32  24.3             1060                NA male  
32    32  29.2             1572                NA female
33    41  22.4             1558                NA female
34    24  21.7               NA              2625 female
35    35  30.1             2575                NA female
36    47  24.6               NA              3103 male  
37    26  19.6             1240              2660 female
38    33  24.3             1341              2826 male  
39    37  24.3             2012              4042 female
40    38  24.4               NA              3283 female
41    42  25.1             1338              2632 male  
42    58  26.4             1330                NA male  
43    33  21.8             1323              2727 female
44    36  25.2             1451                NA male  
45    30  24.4               NA              2340 male  
46    36  24.6             1316                NA male  
47    33  22.5             1000                NA male  
48    48  28.1             1632                NA male  
49    30  26.6             1955                NA female
50    23  22.0              900                NA male  
#  with 1,783 more rows
…
